# Command:
#   > ./chroot_setup.sh chroot_OPS_GCC.lst /QOpenSys/root_path
#

#
# copy dirs list
# (
#  mkdir -p $CHROOT_DIR/path
#  cp -R  /path/* $CHROOT_DIR/path/.
# )
#
:cp_dir
/QOpenSys/QIBM/ProdData/OPS/GCC

